…
``` r
options(tibble.print_min = 5)
```

# load data

``` r
pulse_df = haven::read_sas("./data/public_pulse_data.sas7bdat") %>%
  janitor::clean_names()
pulse_df
```

    ## # A tibble: 1,087 × 7
    ##      id   age sex   bdi_score_bl bdi_score_01m bdi_score_06m bdi_score_12m
    ##   <dbl> <dbl> <chr>        <dbl>         <dbl>         <dbl>         <dbl>
    ## 1 10003  48.0 male             7             1             2             0
    ## 2 10015  72.5 male             6            NA            NA            NA
    ## 3 10022  58.5 male            14             3             8            NA
    ## 4 10026  72.7 male            20             6            18            16
    ## 5 10035  60.4 male             4             0             1             2
    ## # … with 1,082 more rows
…
transpose from wide to long

``` r
pulse_tidy_data = 
  pivot_longer(
    pulse_df,
    bdi_score_bl:bdi_score_12m,
    names_to = "visit",
    values_to = "bdi"
  )

pulse_tidy_data
```

    ## # A tibble: 4,348 × 5
    ##      id   age sex   visit           bdi
    ##   <dbl> <dbl> <chr> <chr>         <dbl>
    ## 1 10003  48.0 male  bdi_score_bl      7
    ## 2 10003  48.0 male  bdi_score_01m     1
    ## 3 10003  48.0 male  bdi_score_06m     2
    ## 4 10003  48.0 male  bdi_score_12m     0
    ## 5 10015  72.5 male  bdi_score_bl      6
    ## # … with 4,343 more rows
remove prefix

``` r
pulse_tidy_data = 
  pivot_longer(
    pulse_df, 
    bdi_score_bl:bdi_score_12m,
    names_to = "visit", 
    names_prefix = "bdi_score_",
    values_to = "bdi")

pulse_tidy_data
```

    ## # A tibble: 4,348 × 5
    ##      id   age sex   visit   bdi
    ##   <dbl> <dbl> <chr> <chr> <dbl>
    ## 1 10003  48.0 male  bl        7
    ## 2 10003  48.0 male  01m       1
    ## 3 10003  48.0 male  06m       2
    ## 4 10003  48.0 male  12m       0
    ## 5 10015  72.5 male  bl        6
    ## # … with 4,343 more rows
…
print(pulse_df, n = 12)
```

    ## # A tibble: 4,348 × 5
    ##    visit    id   age sex     bdi
    ##    <fct> <dbl> <dbl> <chr> <dbl>
    ##  1 00m   10003  48.0 male      7
    ##  2 01m   10003  48.0 male      1
    ##  3 06m   10003  48.0 male      2
    ##  4 12m   10003  48.0 male      0
    ##  5 00m   10015  72.5 male      6
    ##  6 01m   10015  72.5 male     NA
    ##  7 06m   10015  72.5 male     NA
    ##  8 12m   10015  72.5 male     NA
    ##  9 00m   10022  58.5 male     14
    ## 10 01m   10022  58.5 male      3
    ## 11 06m   10022  58.5 male      8
    ## 12 12m   10022  58.5 male     NA
    ## # … with 4,336 more rows
…
    ## Rows: 49 Columns: 8
    ## ── Column specification ────────────────────────────────────────────────────────
    ## Delimiter: ","
    ## chr (2): Group, Litter Number
    ## dbl (6): GD0 weight, GD18 weight, GD of Birth, Pups born alive, Pups dead @ ...
    ## 
    ## ℹ Use `spec()` to retrieve the full column specification for this data.
    ## ℹ Specify the column types or set `show_col_types = FALSE` to quiet this message.

``` r
print(litters_df)
```

    ## # A tibble: 98 × 3
    ##   litter_number    gd weight
    ##   <chr>         <dbl>  <dbl>
    ## 1 #85               0   19.7
    ## 2 #85              18   34.7
    ## 3 #1/2/95/2         0   27  
    ## 4 #1/2/95/2        18   42  
    ## 5 #5/5/3/83/3-3     0   26  
    ## # … with 93 more rows
…
